{
	"additionalNodes": [ {
		"children": [],
		"id": "3qMQlg7FmD2X2TFeBxdgZp01OBmpJDIy",
		"nodeType": "luaCommand",
		"parameters": [ {
			"name": "var",
			"value": "cestaTam"
		}, {
			"name": "value",
			"value": "GetPath2(global.AllPaths.mp,transportovana_jednotka,global.maxX,50,false)"
		}, {
			"name": "scriptName",
			"value": "store"
		} ],
		"scriptName": "store"
	} ],
	"additionalParameters": {
		"root": {
			"height": 148,
			"width": 310
		}
	},
	"inputs": [ {
		"command": "BETS_UNIT",
		"name": "transportovana_jednotka"
	}, {
		"command": "BETS_UNIT",
		"name": "transporter"
	}, {
		"command": "BETS_AREA",
		"name": "area"
	} ],
	"outputs": [],
	"properties": {
		"2LK8P9RunRS2nZIdXuQWIPAvqtMfQ2oq": {
			"height": 112,
			"title": "nota_mastr_ukol1.moveUnitAlongPath",
			"width": 768,
			"x": 730,
			"y": -303
		},
		"3qMQlg7FmD2X2TFeBxdgZp01OBmpJDIy": {
			"height": 94,
			"title": "store",
			"width": 765,
			"x": 727,
			"y": -488
		},
		"7sCtGQkm58yxTcCnhSjvh3pwqpRp00OV": {
			"height": 112,
			"title": "nota_mastr_ukol1.UnloadUnits",
			"width": 311,
			"x": 735,
			"y": 253
		},
		"AH9qrr1CQDSx7ZhTryMuvwv6VuMi7Cn4": {
			"height": 94,
			"title": "store",
			"width": 437,
			"x": 742,
			"y": -703
		},
		"HgtWwCPjXH9d1w5ghm8lJWrxWDgv6RRr": {
			"height": 150,
			"title": "nota_mastr_ukol1.moveUnitAlongPath",
			"width": 1019,
			"x": 728,
			"y": 40
		},
		"MW1DcVZaTkyGXa5ozhFPhPCOsRciKewY": {
			"height": 60,
			"title": "zachranna sekvence",
			"width": 215,
			"x": 423,
			"y": 31
		},
		"XE49Rc9UzVb5H3xz5lTfFoB2fxKNrivv": {
			"height": 94,
			"title": "store",
			"width": 752,
			"x": 742,
			"y": -83
		},
		"bUehZ923WYMcqP0Xs0iFmLFvpBdOiR4g": {
			"height": 94,
			"title": "store",
			"width": 757,
			"x": 726,
			"y": -400
		},
		"bodtN5s4VgfHkhfuPw3SPejx64r7kJO4": {
			"height": 92,
			"title": "store",
			"width": 235,
			"x": 786,
			"y": 366
		},
		"m3AXeL0SxNn1dO7tv0p9Nlh7JQtTulEX": {
			"height": 94,
			"title": "store",
			"width": 395,
			"x": 740,
			"y": -617
		},
		"umVSXM3LmZzzwWUM543PdMxwHWSxffy2": {
			"height": 92,
			"title": "nota_mastr_ukol1.LoadUnits",
			"width": 298,
			"x": 729,
			"y": -190
		}
	},
	"roles": [ {
		"categories": [],
		"name": "Role 0"
	} ],
	"root": {
		"children": [ {
			"children": [],
			"id": "AH9qrr1CQDSx7ZhTryMuvwv6VuMi7Cn4",
			"nodeType": "luaCommand",
			"parameters": [ {
				"name": "var",
				"value": "tu"
			}, {
				"name": "value",
				"value": "Vec3(Spring.GetUnitPosition(transportovana_jednotka))"
			}, {
				"name": "scriptName",
				"value": "store"
			} ],
			"scriptName": "store"
		}, {
			"children": [],
			"id": "m3AXeL0SxNn1dO7tv0p9Nlh7JQtTulEX",
			"nodeType": "luaCommand",
			"parameters": [ {
				"name": "var",
				"value": "au"
			}, {
				"name": "value",
				"value": "Vec3(Spring.GetUnitPosition(transporter))"
			}, {
				"name": "scriptName",
				"value": "store"
			} ],
			"scriptName": "store"
		}, {
			"children": [],
			"id": "bUehZ923WYMcqP0Xs0iFmLFvpBdOiR4g",
			"nodeType": "luaCommand",
			"parameters": [ {
				"name": "var",
				"value": "cestaTam"
			}, {
				"name": "value",
				"value": "GetPath(global.AllPaths.mp,Vec3(Spring.GetUnitPosition(transportovana_jednotka)),global.maxX,50,false)"
			}, {
				"name": "scriptName",
				"value": "store"
			} ],
			"scriptName": "store"
		}, {
			"children": [],
			"id": "2LK8P9RunRS2nZIdXuQWIPAvqtMfQ2oq",
			"nodeType": "luaCommand",
			"parameters": [ {
				"name": "unitID",
				"value": "{transporter}"
			}, {
				"name": "path",
				"value": "cestaTam"
			}, {
				"name": "fight",
				"value": "false"
			}, {
				"name": "scriptName",
				"value": "nota_mastr_ukol1.moveUnitAlongPath"
			} ],
			"scriptName": "nota_mastr_ukol1.moveUnitAlongPath"
		}, {
			"children": [],
			"id": "umVSXM3LmZzzwWUM543PdMxwHWSxffy2",
			"nodeType": "luaCommand",
			"parameters": [ {
				"name": "UnitsToLoad",
				"value": "{transportovana_jednotka}"
			}, {
				"name": "TransportToLoadTo",
				"value": "transporter"
			}, {
				"name": "scriptName",
				"value": "nota_mastr_ukol1.LoadUnits"
			} ],
			"scriptName": "nota_mastr_ukol1.LoadUnits"
		}, {
			"children": [],
			"id": "XE49Rc9UzVb5H3xz5lTfFoB2fxKNrivv",
			"nodeType": "luaCommand",
			"parameters": [ {
				"name": "var",
				"value": "cestaZpet"
			}, {
				"name": "value",
				"value": "GetPath(global.AllPaths.mp,Vec3(Spring.GetUnitPosition(transportovana_jednotka)),global.maxX,50,true)"
			}, {
				"name": "scriptName",
				"value": "store"
			} ],
			"scriptName": "store"
		}, {
			"children": [],
			"id": "HgtWwCPjXH9d1w5ghm8lJWrxWDgv6RRr",
			"nodeType": "luaCommand",
			"parameters": [ {
				"name": "unitID",
				"value": "{transporter}"
			}, {
				"name": "path",
				"value": "cestaZpet"
			}, {
				"name": "fight",
				"value": "false"
			}, {
				"name": "scriptName",
				"value": "nota_mastr_ukol1.moveUnitAlongPath"
			} ],
			"scriptName": "nota_mastr_ukol1.moveUnitAlongPath"
		}, {
			"children": [],
			"id": "7sCtGQkm58yxTcCnhSjvh3pwqpRp00OV",
			"nodeType": "luaCommand",
			"parameters": [ {
				"name": "UnitsToUnload",
				"value": "{transportovana_jednotka}"
			}, {
				"name": "TransportToUnloadFrom",
				"value": "transporter"
			}, {
				"name": "UnloadArea",
				"value": "area"
			}, {
				"name": "scriptName",
				"value": "nota_mastr_ukol1.UnloadUnits"
			} ],
			"scriptName": "nota_mastr_ukol1.UnloadUnits"
		}, {
			"children": [],
			"id": "bodtN5s4VgfHkhfuPw3SPejx64r7kJO4",
			"nodeType": "luaCommand",
			"parameters": [ {
				"name": "var",
				"value": "global.atlases[transporter]"
			}, {
				"name": "value",
				"value": "\"free\""
			}, {
				"name": "scriptName",
				"value": "store"
			} ],
			"scriptName": "store"
		} ],
		"id": "MW1DcVZaTkyGXa5ozhFPhPCOsRciKewY",
		"nodeType": "sequence",
		"parameters": []
	}
}