{
	"additionalNodes": [],
	"additionalParameters": {
		"root": {
			"height": 128,
			"width": 216
		}
	},
	"inputs": [ {
		"command": "BETS_UNIT",
		"name": "attacker"
	}, {
		"command": "Variable",
		"name": "squad"
	} ],
	"outputs": [],
	"properties": {
		"IdQYLBDJX078kMrDltpQAxAO3ZnxObRX": {
			"height": 172,
			"title": "reference",
			"width": 426,
			"x": 1743,
			"y": -83
		},
		"JL0YblDhFrhbdqMn4BpaJYCABx5QvA60": {
			"height": 90,
			"title": "luaCondition",
			"width": 295,
			"x": 1289,
			"y": -113
		},
		"U6D1lq22GRu05PBUuqQE1iBJtwZ8ACB4": {
			"height": 90,
			"title": "luaCondition",
			"width": 295,
			"x": 954,
			"y": -57
		},
		"arzvE6DZDCego8voQ9BATOjqwrYdfC98": {
			"height": 172,
			"title": "reference",
			"width": 426,
			"x": 2175,
			"y": -226
		},
		"cBSD0sehXhtsbinuQ0fP1tkYov1wMhDw": {
			"height": 172,
			"title": "reference",
			"width": 426,
			"x": 1306,
			"y": 40
		},
		"eiqAA8imY0WxBfVXJctGqxAms4BWonCf": {
			"height": 54,
			"title": "kill ancient",
			"width": 147,
			"x": 981,
			"y": 81
		},
		"rmehRulCtOzYfKpeeKaNifQy38bi8S55": {
			"height": 172,
			"title": "reference",
			"width": 426,
			"x": 2172,
			"y": -430
		},
		"sbmSdZtzo0eUuaGEnazwe1MTvOXfZjcQ": {
			"height": 90,
			"title": "luaCondition",
			"width": 295,
			"x": 1702,
			"y": -199
		},
		"yZ6ilklLs8wrL9MiNVHnk2aEhGkXB26O": {
			"height": 90,
			"title": "luaCondition",
			"width": 518,
			"x": 355,
			"y": 6
		}
	},
	"roles": [ {
		"categories": [],
		"name": "Role 0"
	} ],
	"root": {
		"children": [ {
			"children": [ {
				"children": [ {
					"children": [ {
						"children": [],
						"id": "rmehRulCtOzYfKpeeKaNifQy38bi8S55",
						"nodeType": "reference",
						"parameters": [ {
							"name": "behaviourName",
							"value": "nota_mastr_ukol1.sekvencniSquadFriendlyAttackOrder"
						} ],
						"referenceInputs": [ {
							"name": "attacker",
							"value": "attacker"
						}, {
							"name": "squad",
							"value": "squad"
						}, {
							"name": "target",
							"value": "Spring.GetUnitNearestEnemy(attacker)"
						} ],
						"referenceOutputs": []
					}, {
						"children": [],
						"id": "arzvE6DZDCego8voQ9BATOjqwrYdfC98",
						"nodeType": "reference",
						"parameters": [ {
							"name": "behaviourName",
							"value": "nota_mastr_ukol1.sekvencniSquadFriendlyAttackOrder"
						} ],
						"referenceInputs": [ {
							"name": "attacker",
							"value": "attacker"
						}, {
							"name": "squad",
							"value": "squad"
						}, {
							"name": "target",
							"value": "global.targets[3]"
						} ],
						"referenceOutputs": []
					} ],
					"id": "sbmSdZtzo0eUuaGEnazwe1MTvOXfZjcQ",
					"nodeType": "luaCondition",
					"parameters": [ {
						"name": "expression",
						"value": "not Spring.ValidUnitID(global.targets[3])"
					}, {
						"name": "repeat",
						"value": "false"
					} ]
				}, {
					"children": [],
					"id": "IdQYLBDJX078kMrDltpQAxAO3ZnxObRX",
					"nodeType": "reference",
					"parameters": [ {
						"name": "behaviourName",
						"value": "nota_mastr_ukol1.sekvencniSquadFriendlyAttackOrder"
					} ],
					"referenceInputs": [ {
						"name": "attacker",
						"value": "attacker"
					}, {
						"name": "squad",
						"value": "squad"
					}, {
						"name": "target",
						"value": "global.targets[2]"
					} ],
					"referenceOutputs": []
				} ],
				"id": "JL0YblDhFrhbdqMn4BpaJYCABx5QvA60",
				"nodeType": "luaCondition",
				"parameters": [ {
					"name": "expression",
					"value": "not Spring.ValidUnitID(global.targets[2])"
				}, {
					"name": "repeat",
					"value": "false"
				} ]
			}, {
				"children": [],
				"id": "cBSD0sehXhtsbinuQ0fP1tkYov1wMhDw",
				"nodeType": "reference",
				"parameters": [ {
					"name": "behaviourName",
					"value": "nota_mastr_ukol1.sekvencniSquadFriendlyAttackOrder"
				} ],
				"referenceInputs": [ {
					"name": "attacker",
					"value": "attacker"
				}, {
					"name": "squad",
					"value": "squad"
				}, {
					"name": "target",
					"value": "global.targets[1]"
				} ],
				"referenceOutputs": []
			} ],
			"id": "U6D1lq22GRu05PBUuqQE1iBJtwZ8ACB4",
			"nodeType": "luaCondition",
			"parameters": [ {
				"name": "expression",
				"value": "not Spring.ValidUnitID(global.targets[1])"
			}, {
				"name": "repeat",
				"value": "false"
			} ]
		}, {
			"children": [],
			"id": "eiqAA8imY0WxBfVXJctGqxAms4BWonCf",
			"nodeType": "success",
			"parameters": []
		} ],
		"id": "yZ6ilklLs8wrL9MiNVHnk2aEhGkXB26O",
		"nodeType": "luaCondition",
		"parameters": [ {
			"name": "expression",
			"value": "GetCount(SekvencniGetEnemiesInRectangle({8800,804,9500,1700})) == 0"
		}, {
			"name": "repeat",
			"value": "false"
		} ]
	}
}