{
	"additionalNodes": [ {
		"children": [ {
			"children": [],
			"id": "o6vPgbYvUj6EPpazgZuiHblj03gxrV3J",
			"nodeType": "luaCommand",
			"parameters": [ {
				"name": "var",
				"value": "d"
			}, {
				"name": "value",
				"value": "DangerScanner()"
			}, {
				"name": "scriptName",
				"value": "store"
			} ],
			"scriptName": "store"
		} ],
		"id": "ceRlAD0hZKTuseugL6gHZJM96AXsrsrb",
		"nodeType": "repeat",
		"parameters": []
	}, {
		"children": [],
		"id": "ZPJ4BNedSXnXXtI5rXiqSCP4n1ff3ewD",
		"nodeType": "luaCommand",
		"parameters": [ {
			"name": "var",
			"value": "y"
		}, {
			"name": "value",
			"value": "SafePathPlanner3(x,Vec3(3850,0,767),Vec3(2758,0 , 2800),50,bb.maxX)"
		}, {
			"name": "scriptName",
			"value": "store"
		} ],
		"scriptName": "store"
	}, {
		"children": [],
		"id": "5y8veOw8Z7VwlHOndW2BZ0xjWGITI2Ie",
		"nodeType": "repeat",
		"parameters": []
	} ],
	"additionalParameters": {
		"root": {
			"height": 128,
			"width": 216
		}
	},
	"inputs": [ {
		"command": "BETS_POSITION",
		"name": "posEnd"
	}, {
		"command": "BETS_UNIT",
		"name": "atlas"
	} ],
	"outputs": [],
	"properties": {
		"5y8veOw8Z7VwlHOndW2BZ0xjWGITI2Ie": {
			"height": 60,
			"title": "repeat",
			"width": 131,
			"x": 423,
			"y": 496
		},
		"A2zJkRnV53kTXnalyPAsgi8eoiN5hypt": {
			"height": 60,
			"title": "sequence",
			"width": 143,
			"x": 912,
			"y": 29
		},
		"AyedIgSu2gjzhl2ewcMcJgrHMDjwEO2V": {
			"height": 94,
			"title": "store",
			"width": 195,
			"x": 1157,
			"y": -70
		},
		"CajvCG6ht9pXc1DKtWu0nSPiaxxukU4E": {
			"height": 60,
			"title": "sequence",
			"width": 143,
			"x": 1057,
			"y": 451
		},
		"LnQVubOoYHcTdzCaK9v8ujYFUPvjukEJ": {
			"height": 98,
			"title": "store",
			"width": 621,
			"x": 1138,
			"y": 14
		},
		"UHtaeESbm51R0YcUTeSLoZsKRJdVGjeN": {
			"height": 70,
			"title": "parallel",
			"width": 202,
			"x": 338,
			"y": 6
		},
		"VBM7ASYoEPpUgnV7W6OleV25mS3RrVni": {
			"height": 72,
			"title": "waitUntil",
			"width": 150,
			"x": 1358,
			"y": 585
		},
		"YhYlqxNBRvza7gpNOLTr3z02nchJ3vQl": {
			"height": 94,
			"title": "store",
			"width": 412,
			"x": 1177,
			"y": -187
		},
		"ZPJ4BNedSXnXXtI5rXiqSCP4n1ff3ewD": {
			"height": 98,
			"title": "store",
			"width": 621,
			"x": 1849,
			"y": -20
		},
		"ceRlAD0hZKTuseugL6gHZJM96AXsrsrb": {
			"height": 60,
			"title": "repeat",
			"width": 131,
			"x": 630,
			"y": -113
		},
		"fqQSi7OsrRxfLiNicDxENQXWj9ApVNBd": {
			"height": 90,
			"title": "luaCondition",
			"width": 194,
			"x": 799,
			"y": 411
		},
		"gm5WKfq3hOAy3a7Nihe0bgo0bJ9raakE": {
			"height": 92,
			"title": "store",
			"width": 131,
			"x": 1177,
			"y": 264
		},
		"h6Pf5abx4XlN6kjPSmeo2OO1BjgjtmSl": {
			"height": 72,
			"title": "waitUntil",
			"width": 150,
			"x": 1128,
			"y": 362
		},
		"jHqKzmznP3xdE1fVcHVBlD1cVLYdiUhR": {
			"height": 94,
			"title": "store",
			"width": 212,
			"x": 1162,
			"y": 117
		},
		"lgSmRlf7a3vyFRn7IRXtQjFlsOHN5oPk": {
			"height": 112,
			"title": "nota_mastr_ukol1.moveUnitAlongPath",
			"width": 324,
			"x": 1285,
			"y": 429
		},
		"o6vPgbYvUj6EPpazgZuiHblj03gxrV3J": {
			"height": 94,
			"title": "store",
			"width": 195,
			"x": 830,
			"y": -200
		}
	},
	"roles": [ {
		"categories": [],
		"name": "Role 0"
	} ],
	"root": {
		"children": [ {
			"children": [ {
				"children": [],
				"id": "YhYlqxNBRvza7gpNOLTr3z02nchJ3vQl",
				"nodeType": "luaCommand",
				"parameters": [ {
					"name": "var",
					"value": "x"
				}, {
					"name": "value",
					"value": "HeightScanner2()"
				}, {
					"name": "scriptName",
					"value": "store"
				} ],
				"scriptName": "store"
			}, {
				"children": [],
				"id": "AyedIgSu2gjzhl2ewcMcJgrHMDjwEO2V",
				"nodeType": "luaCommand",
				"parameters": [ {
					"name": "var",
					"value": "d"
				}, {
					"name": "value",
					"value": "DangerScanner()"
				}, {
					"name": "scriptName",
					"value": "store"
				} ],
				"scriptName": "store"
			}, {
				"children": [],
				"id": "LnQVubOoYHcTdzCaK9v8ujYFUPvjukEJ",
				"nodeType": "luaCommand",
				"parameters": [ {
					"name": "var",
					"value": "y"
				}, {
					"name": "value",
					"value": "SafePathPlanner3(x,Vec3(3850,0,767),posEnd,50,bb.maxX)"
				}, {
					"name": "scriptName",
					"value": "store"
				} ],
				"scriptName": "store"
			}, {
				"children": [],
				"id": "jHqKzmznP3xdE1fVcHVBlD1cVLYdiUhR",
				"nodeType": "luaCommand",
				"parameters": [ {
					"name": "var",
					"value": "c"
				}, {
					"name": "value",
					"value": "DrawSafePath(y.gp)"
				}, {
					"name": "scriptName",
					"value": "store"
				} ],
				"scriptName": "store"
			}, {
				"children": [],
				"id": "gm5WKfq3hOAy3a7Nihe0bgo0bJ9raakE",
				"nodeType": "luaCommand",
				"parameters": [ {
					"name": "var",
					"value": "done"
				}, {
					"name": "value",
					"value": "true"
				}, {
					"name": "scriptName",
					"value": "store"
				} ],
				"scriptName": "store"
			}, {
				"children": [],
				"id": "h6Pf5abx4XlN6kjPSmeo2OO1BjgjtmSl",
				"nodeType": "luaCommand",
				"parameters": [ {
					"name": "condition",
					"value": "false"
				}, {
					"name": "scriptName",
					"value": "waitUntil"
				} ],
				"scriptName": "waitUntil"
			} ],
			"id": "A2zJkRnV53kTXnalyPAsgi8eoiN5hypt",
			"nodeType": "sequence",
			"parameters": []
		}, {
			"children": [ {
				"children": [ {
					"children": [],
					"id": "lgSmRlf7a3vyFRn7IRXtQjFlsOHN5oPk",
					"nodeType": "luaCommand",
					"parameters": [ {
						"name": "unitID",
						"value": "atlas"
					}, {
						"name": "path",
						"value": "y.mp"
					}, {
						"name": "fight",
						"value": "false"
					}, {
						"name": "scriptName",
						"value": "nota_mastr_ukol1.moveUnitAlongPath"
					} ],
					"scriptName": "nota_mastr_ukol1.moveUnitAlongPath"
				}, {
					"children": [],
					"id": "VBM7ASYoEPpUgnV7W6OleV25mS3RrVni",
					"nodeType": "luaCommand",
					"parameters": [ {
						"name": "condition",
						"value": "false"
					}, {
						"name": "scriptName",
						"value": "waitUntil"
					} ],
					"scriptName": "waitUntil"
				} ],
				"id": "CajvCG6ht9pXc1DKtWu0nSPiaxxukU4E",
				"nodeType": "sequence",
				"parameters": []
			} ],
			"id": "fqQSi7OsrRxfLiNicDxENQXWj9ApVNBd",
			"nodeType": "luaCondition",
			"parameters": [ {
				"name": "expression",
				"value": "done"
			}, {
				"name": "repeat",
				"value": "true"
			} ]
		} ],
		"id": "UHtaeESbm51R0YcUTeSLoZsKRJdVGjeN",
		"nodeType": "parallel",
		"parameters": [ {
			"name": "mode",
			"value": "all-success"
		} ]
	}
}