{
	"additionalNodes": [],
	"additionalParameters": {
		"root": {
			"height": 148,
			"width": 271
		}
	},
	"inputs": [ {
		"command": "BETS_POSITION",
		"name": "pos"
	}, {
		"command": "Variable",
		"name": "flagshipVector"
	}, {
		"command": "Variable",
		"name": "followers"
	} ],
	"outputs": [],
	"properties": {
		"6BOyhEUpMLQUQ2XJgpb88d8hPBbIQUgu": {
			"height": 94,
			"title": "TransformovanaFormace",
			"width": 580,
			"x": 604,
			"y": 110
		},
		"6giIdV3HAlWBBZ3Nsc5zy6aKHbD94ugn": {
			"height": 60,
			"title": "sequence",
			"width": 143,
			"x": 334,
			"y": 31
		},
		"Ga0Raex8g22iIowlyt4PnceyRO1QAvAv": {
			"height": 94,
			"title": "StoringGroupInMoveCustomGroupFriendlyFormat",
			"width": 399,
			"x": 607,
			"y": -80
		},
		"H1dvtR1NQxjKGP7YaUnFQ99wzIBK6Bjh": {
			"height": 94,
			"title": "VypocetUhluProFormaciFollwru",
			"width": 582,
			"x": 601,
			"y": 19
		},
		"MAoE8jrdhx9wcVkiCbL40bue7sXO716p": {
			"height": 210,
			"title": "nota_mastr_ukol1.moveCustomGroup",
			"width": 1145,
			"x": 605,
			"y": 207
		},
		"Wb3MJG2G48nNeNc7eP3xo1E99dQ0hYxN": {
			"height": 94,
			"title": "FormationOfFollowerUnits",
			"width": 314,
			"x": 606,
			"y": -180
		}
	},
	"roles": [ {
		"categories": [],
		"name": "Role 0"
	} ],
	"root": {
		"children": [ {
			"children": [],
			"id": "Wb3MJG2G48nNeNc7eP3xo1E99dQ0hYxN",
			"nodeType": "luaCommand",
			"parameters": [ {
				"name": "var",
				"value": "forma"
			}, {
				"name": "value",
				"value": "nota_mastr_ukol1.Definition(\"sipka\")"
			}, {
				"name": "scriptName",
				"value": "store"
			} ],
			"scriptName": "store"
		}, {
			"children": [],
			"id": "Ga0Raex8g22iIowlyt4PnceyRO1QAvAv",
			"nodeType": "luaCommand",
			"parameters": [ {
				"name": "var",
				"value": "grupa"
			}, {
				"name": "value",
				"value": "CreateGroup(units,nil,followers)"
			}, {
				"name": "scriptName",
				"value": "store"
			} ],
			"scriptName": "store"
		}, {
			"children": [],
			"id": "H1dvtR1NQxjKGP7YaUnFQ99wzIBK6Bjh",
			"nodeType": "luaCommand",
			"parameters": [ {
				"name": "var",
				"value": "DirectionAngle"
			}, {
				"name": "value",
				"value": "90+math.atan2(flagshipVector.normDirZ,flagshipVector.normDirX)*180/math.pi"
			}, {
				"name": "scriptName",
				"value": "store"
			} ],
			"scriptName": "store"
		}, {
			"children": [],
			"id": "6BOyhEUpMLQUQ2XJgpb88d8hPBbIQUgu",
			"nodeType": "luaCommand",
			"parameters": [ {
				"name": "var",
				"value": "tff"
			}, {
				"name": "value",
				"value": "formation.StaticTransform(forma.positions,DirectionAngle,nil,Vec3(150,1,150))"
			}, {
				"name": "scriptName",
				"value": "store"
			} ],
			"scriptName": "store"
		}, {
			"children": [],
			"id": "MAoE8jrdhx9wcVkiCbL40bue7sXO716p",
			"nodeType": "luaCommand",
			"parameters": [ {
				"name": "groupDefintion",
				"value": "grupa"
			}, {
				"name": "position",
				"value": "pos"
			}, {
				"name": "formation",
				"value": "tff"
			}, {
				"name": "fight",
				"value": "false"
			}, {
				"name": "scriptName",
				"value": "nota_mastr_ukol1.moveCustomGroup"
			} ],
			"scriptName": "nota_mastr_ukol1.moveCustomGroup"
		} ],
		"id": "6giIdV3HAlWBBZ3Nsc5zy6aKHbD94ugn",
		"nodeType": "sequence",
		"parameters": []
	}
}