{
	"additionalNodes": [ {
		"children": [],
		"id": "ZbJw06fDshz7I5ul5EJcd38NeryWsB4l",
		"nodeType": "luaCommand",
		"parameters": [ {
			"name": "position",
			"value": "pos"
		}, {
			"name": "formation",
			"value": "tff"
		}, {
			"name": "fight",
			"value": "false"
		}, {
			"name": "spacing",
			"value": "Vec3(50,1,50)"
		}, {
			"name": "scriptName",
			"value": "nota_mastr_ukol1.move"
		} ],
		"scriptName": "nota_mastr_ukol1.move"
	}, {
		"children": [],
		"id": "k8mfUmhqBKi1eoTPh9ufY5z5SpO4HCYE",
		"nodeType": "luaCommand",
		"parameters": [ {
			"name": "var",
			"value": "grupa"
		}, {
			"name": "value",
			"value": "{[units[1]] = 1 , [units[2]] = 2 , [units[3]]= 3, [units[4]] = 4}"
		}, {
			"name": "scriptName",
			"value": "store"
		} ],
		"scriptName": "store"
	}, {
		"children": [],
		"id": "97Bm5xV2Kd9AAVmTSp0evnlVAHMzpBui",
		"nodeType": "luaCommand",
		"parameters": [ {
			"name": "var",
			"value": "tff"
		}, {
			"name": "value",
			"value": "formation.StaticTransform(forma.positions,Vec3(-1,1,1),pos,Vec3(1,1,1))"
		}, {
			"name": "scriptName",
			"value": "store"
		} ],
		"scriptName": "store"
	}, {
		"children": [],
		"id": "cIZQgJEIZfj0LaRJtZoq2lLBI9hMtAT8",
		"nodeType": "luaCommand",
		"parameters": [ {
			"name": "var",
			"value": "tff"
		}, {
			"name": "value",
			"value": "formation.StaticTransform(forma.positions,DirectionAngle,nil,Vec3(1,1,1))"
		}, {
			"name": "scriptName",
			"value": "store"
		} ],
		"scriptName": "store"
	}, {
		"children": [],
		"id": "68JbB3eXWalwx5lk6pNpNYED3ZlrmhK1",
		"nodeType": "luaCommand",
		"parameters": [ {
			"name": "var",
			"value": "testgrupa"
		}, {
			"name": "value",
			"value": "CreateGroup({11,23,31},nil,{1,2,3},nil,{1,2,32,3,5,66})"
		}, {
			"name": "scriptName",
			"value": "store"
		} ],
		"scriptName": "store"
	}, {
		"children": [],
		"id": "Mqy4fUOHRpArtIgCkWmvBanZS4mYTTSy",
		"nodeType": "luaCommand",
		"parameters": [ {
			"name": "msg",
			"value": "forma"
		}, {
			"name": "scriptName",
			"value": "echo"
		} ],
		"scriptName": "echo"
	}, {
		"children": [],
		"id": "4cnZTXPwMvuvYzHhP2UlOAJsstdPF5w8",
		"nodeType": "luaCommand",
		"parameters": [ {
			"name": "var",
			"value": "grupa"
		}, {
			"name": "value",
			"value": "{[flagship] = 1 , [units[1]] = 2 , [units[2]]= 3, [units[3]] = 4}"
		}, {
			"name": "scriptName",
			"value": "store"
		} ],
		"scriptName": "store"
	} ],
	"additionalParameters": {
		"root": {
			"height": 148,
			"width": 242
		}
	},
	"inputs": [ {
		"command": "BETS_POSITION",
		"name": "pos"
	}, {
		"command": "Variable",
		"name": "flagshipVector"
	}, {
		"command": "Variable",
		"name": "flagships"
	} ],
	"outputs": [],
	"properties": {
		"4cnZTXPwMvuvYzHhP2UlOAJsstdPF5w8": {
			"height": 92,
			"title": "store",
			"width": 516,
			"x": 1098,
			"y": -59
		},
		"68JbB3eXWalwx5lk6pNpNYED3ZlrmhK1": {
			"height": 99,
			"title": "store",
			"width": 444,
			"x": 1111,
			"y": -182
		},
		"97Bm5xV2Kd9AAVmTSp0evnlVAHMzpBui": {
			"height": 94,
			"title": "store",
			"width": 544,
			"x": 1247,
			"y": 341
		},
		"FYcXbeAf9cWTEvbbc3zQFu7QF0maIb29": {
			"height": 94,
			"title": "store",
			"width": 488,
			"x": 629,
			"y": 12
		},
		"Mqy4fUOHRpArtIgCkWmvBanZS4mYTTSy": {
			"height": 74,
			"title": "echo",
			"width": 263,
			"x": 1559,
			"y": -137
		},
		"PeuYm972T4UHwEtTcEmRuzFXbgZCMmA8": {
			"height": 210,
			"title": "nota_mastr_ukol1.moveCustomGroup",
			"width": 1145,
			"x": 550,
			"y": 248
		},
		"VhJYgsZuPwb413tHTlg4bmGkwaXLhJGE": {
			"height": 94,
			"title": "store",
			"width": 269,
			"x": 557,
			"y": -228
		},
		"ZbJw06fDshz7I5ul5EJcd38NeryWsB4l": {
			"height": 134,
			"title": "nota_mastr_ukol1.move",
			"width": 238,
			"x": 1218,
			"y": 112
		},
		"b750PaNmyUuP0ciWEKM82ZcrdvSid5yI": {
			"height": 60,
			"title": "sequence",
			"width": 143,
			"x": 355,
			"y": 25
		},
		"cIZQgJEIZfj0LaRJtZoq2lLBI9hMtAT8": {
			"height": 94,
			"title": "store",
			"width": 548,
			"x": 1227,
			"y": 72
		},
		"k8mfUmhqBKi1eoTPh9ufY5z5SpO4HCYE": {
			"height": 92,
			"title": "store",
			"width": 516,
			"x": 1147,
			"y": -43
		},
		"tZm9yZn3g7Zyit5kkMG2HrH9HX2Sqjwv": {
			"height": 94,
			"title": "store",
			"width": 564,
			"x": 629,
			"y": 106
		},
		"v8AZNNoHyTLirJplhGQC9OWao6UZF8SV": {
			"height": 94,
			"title": "store",
			"width": 285,
			"x": 627,
			"y": -94
		}
	},
	"roles": [ {
		"categories": [],
		"name": "Role 0"
	} ],
	"root": {
		"children": [ {
			"children": [],
			"id": "VhJYgsZuPwb413tHTlg4bmGkwaXLhJGE",
			"nodeType": "luaCommand",
			"parameters": [ {
				"name": "var",
				"value": "forma"
			}, {
				"name": "value",
				"value": "formation.Definition(\"wedge\")"
			}, {
				"name": "scriptName",
				"value": "store"
			} ],
			"scriptName": "store"
		}, {
			"children": [],
			"id": "v8AZNNoHyTLirJplhGQC9OWao6UZF8SV",
			"nodeType": "luaCommand",
			"parameters": [ {
				"name": "var",
				"value": "grupa"
			}, {
				"name": "value",
				"value": "CreateGroup(flagships,nil,units)"
			}, {
				"name": "scriptName",
				"value": "store"
			} ],
			"scriptName": "store"
		}, {
			"children": [],
			"id": "FYcXbeAf9cWTEvbbc3zQFu7QF0maIb29",
			"nodeType": "luaCommand",
			"parameters": [ {
				"name": "var",
				"value": "DirectionAngle"
			}, {
				"name": "value",
				"value": "math.atan2(flagshipVector.dirY,flagshipVector.dirX)*180/math.pi"
			}, {
				"name": "scriptName",
				"value": "store"
			} ],
			"scriptName": "store"
		}, {
			"children": [],
			"id": "tZm9yZn3g7Zyit5kkMG2HrH9HX2Sqjwv",
			"nodeType": "luaCommand",
			"parameters": [ {
				"name": "var",
				"value": "tff"
			}, {
				"name": "value",
				"value": "formation.StaticTransform(forma.positions,DirectionAngle,nil,Vec3(50,1,50))"
			}, {
				"name": "scriptName",
				"value": "store"
			} ],
			"scriptName": "store"
		}, {
			"children": [],
			"id": "PeuYm972T4UHwEtTcEmRuzFXbgZCMmA8",
			"nodeType": "luaCommand",
			"parameters": [ {
				"name": "groupDefintion",
				"value": "grupa"
			}, {
				"name": "position",
				"value": "pos"
			}, {
				"name": "formation",
				"value": "tff"
			}, {
				"name": "fight",
				"value": "false"
			}, {
				"name": "scriptName",
				"value": "nota_mastr_ukol1.moveCustomGroup"
			} ],
			"scriptName": "nota_mastr_ukol1.moveCustomGroup"
		} ],
		"id": "b750PaNmyUuP0ciWEKM82ZcrdvSid5yI",
		"nodeType": "sequence",
		"parameters": []
	}
}