{
	"additionalNodes": [],
	"additionalParameters": {
		"root": {
			"height": 128,
			"width": 247
		}
	},
	"inputs": [ {
		"command": "Variable",
		"name": "unitsToRescue"
	}, {
		"command": "BETS_AREA",
		"name": "area"
	} ],
	"outputs": [],
	"properties": {
		"3FdR3BCUwVqhHQFpTEgOCwasEhSFiVjl": {
			"height": 94,
			"title": "store",
			"width": 376,
			"x": 657,
			"y": -262
		},
		"4tuP976ZNkh9O6qs3Ao0WK9ICZB93SSM": {
			"height": 60,
			"title": "sequence",
			"width": 143,
			"x": 857,
			"y": 129
		},
		"6o9phBvtiPevvIAwG3z58kKGdxHH3U64": {
			"height": 193,
			"title": "reference",
			"width": 473,
			"x": 1198,
			"y": 71
		},
		"8sYCNbYeJaf1JDJM3n7X9X4KCPl829eu": {
			"height": 90,
			"title": "luaCondition",
			"width": 194,
			"x": 592,
			"y": 14
		},
		"QqDLTWU6DV0tT5Y2Qduy8ns0xvqdHJiM": {
			"height": 60,
			"title": "sequence",
			"width": 143,
			"x": 348,
			"y": 25
		},
		"UDPjv6NxDNnykwztgL0CwOMvBorwEDyU": {
			"height": 54,
			"title": "requestUpdateOfUnitsForRescue",
			"width": 292,
			"x": 961,
			"y": -24
		},
		"bkwm1XPhHKmxqIVWI9ssE3FAJRil7uAs": {
			"height": 92,
			"title": "store",
			"width": 224,
			"x": 1202,
			"y": 281
		}
	},
	"roles": [ {
		"categories": [],
		"name": "Role 0"
	} ],
	"root": {
		"children": [ {
			"children": [],
			"id": "3FdR3BCUwVqhHQFpTEgOCwasEhSFiVjl",
			"nodeType": "luaCommand",
			"parameters": [ {
				"name": "var",
				"value": "rescuee"
			}, {
				"name": "value",
				"value": "GetOneUnitForRescue(unitsToRescue)"
			}, {
				"name": "scriptName",
				"value": "store"
			} ],
			"scriptName": "store"
		}, {
			"children": [ {
				"children": [],
				"id": "UDPjv6NxDNnykwztgL0CwOMvBorwEDyU",
				"nodeType": "success",
				"parameters": []
			}, {
				"children": [ {
					"children": [],
					"id": "6o9phBvtiPevvIAwG3z58kKGdxHH3U64",
					"nodeType": "reference",
					"parameters": [ {
						"name": "behaviourName",
						"value": "nota_mastr_ukol1.atlas_bezpecny_transport"
					} ],
					"referenceInputs": [ {
						"name": "transportovana_jednotka",
						"value": "rescuee"
					}, {
						"name": "transporter",
						"value": "GetOneFreeAtlas(global.atlases)"
					}, {
						"name": "area",
						"value": "area"
					} ],
					"referenceOutputs": []
				}, {
					"children": [],
					"id": "bkwm1XPhHKmxqIVWI9ssE3FAJRil7uAs",
					"nodeType": "luaCommand",
					"parameters": [ {
						"name": "var",
						"value": "unitsToRescue[rescuee]"
					}, {
						"name": "value",
						"value": "\"rescued!\""
					}, {
						"name": "scriptName",
						"value": "store"
					} ],
					"scriptName": "store"
				} ],
				"id": "4tuP976ZNkh9O6qs3Ao0WK9ICZB93SSM",
				"nodeType": "sequence",
				"parameters": []
			} ],
			"id": "8sYCNbYeJaf1JDJM3n7X9X4KCPl829eu",
			"nodeType": "luaCondition",
			"parameters": [ {
				"name": "expression",
				"value": "rescuee == nil"
			}, {
				"name": "repeat",
				"value": "false"
			} ]
		} ],
		"id": "QqDLTWU6DV0tT5Y2Qduy8ns0xvqdHJiM",
		"nodeType": "sequence",
		"parameters": []
	}
}