{
	"additionalNodes": [ {
		"children": [],
		"id": "6v02Uh5UhjrVqQc34rS4aVMJ4MT2gvG3",
		"nodeType": "luaCommand",
		"parameters": [ {
			"name": "var",
			"value": "enemies"
		}, {
			"name": "value",
			"value": "SekvencniGetEnemiesInRectangle(Area)"
		}, {
			"name": "scriptName",
			"value": "store"
		} ],
		"scriptName": "store"
	}, {
		"children": [],
		"id": "J2CJulpAE69na8DcIX9nhgpH7TrYHgPo",
		"nodeType": "luaCommand",
		"parameters": [ {
			"name": "var",
			"value": "scoutPos"
		}, {
			"name": "value",
			"value": "GetClosestScoutPosition(31983,16453)"
		}, {
			"name": "scriptName",
			"value": "store"
		} ],
		"scriptName": "store"
	}, {
		"children": [ {
			"children": [],
			"id": "kr2JD5zfrY5WjpcWJEh06fbPfpBQKkHB",
			"nodeType": "success",
			"parameters": []
		}, {
			"children": [],
			"id": "ksvfdFQiXwBeEkAfJbKX1Riz1g2Tifjw",
			"nodeType": "luaCommand",
			"parameters": [ {
				"name": "var",
				"value": "maxRange"
			}, {
				"name": "value",
				"value": "Spring.GetUnitMaxRange(31983)"
			}, {
				"name": "scriptName",
				"value": "store"
			} ],
			"scriptName": "store"
		}, {
			"children": [],
			"id": "yqpNCBJzuwgDPA0Mg9Pox77m4n9lX1gj",
			"nodeType": "luaCommand",
			"parameters": [ {
				"name": "var",
				"value": "testRange"
			}, {
				"name": "value",
				"value": "Spring.GetUnitWeaponTestRange(31983,1,8820)"
			}, {
				"name": "scriptName",
				"value": "store"
			} ],
			"scriptName": "store"
		}, {
			"children": [],
			"id": "M1DqW0AmiJZbsf01Fft3OAYvNWEbTcjv",
			"nodeType": "luaCommand",
			"parameters": [ {
				"name": "var",
				"value": "testTarget"
			}, {
				"name": "value",
				"value": "Spring.GetUnitWeaponTestTarget(31983,1,8820)"
			}, {
				"name": "scriptName",
				"value": "store"
			} ],
			"scriptName": "store"
		}, {
			"children": [],
			"id": "ev0I267Ti2YQkPicpOPFbaejvvI4Ggow",
			"nodeType": "luaCommand",
			"parameters": [ {
				"name": "var",
				"value": "tryTarget"
			}, {
				"name": "value",
				"value": "Spring.GetUnitWeaponTryTarget(31983,1,8820)"
			}, {
				"name": "scriptName",
				"value": "store"
			} ],
			"scriptName": "store"
		}, {
			"children": [],
			"id": "1vhQumzdkp0bEXyJ6kKhVaqxG0Aa57zc",
			"nodeType": "luaCommand",
			"parameters": [ {
				"name": "var",
				"value": "dist"
			}, {
				"name": "value",
				"value": "Spring.GetUnitSeparation(31983,8820)"
			}, {
				"name": "scriptName",
				"value": "store"
			} ],
			"scriptName": "store"
		}, {
			"children": [],
			"id": "HyH46fu35iSvbX3uvvMDba7OOFAPi724",
			"nodeType": "success",
			"parameters": []
		}, {
			"children": [],
			"id": "U53v4fPVa6SJEPHKp0eIk70Jy1dbitZf",
			"nodeType": "success",
			"parameters": []
		} ],
		"id": "q2InX0nnReogc8zUtU18JUOmMduGiygU",
		"nodeType": "sequence",
		"parameters": []
	}, {
		"children": [ {
			"children": [],
			"id": "SjIksr7vDmfrPXPosEBIrynEe2kQ6fwF",
			"nodeType": "luaCommand",
			"parameters": [ {
				"name": "var",
				"value": "cleared"
			}, {
				"name": "value",
				"value": "true"
			}, {
				"name": "scriptName",
				"value": "store"
			} ],
			"scriptName": "store"
		}, {
			"children": [ {
				"children": [],
				"id": "E6z63g1lWMMA1HKNedYpNsT0Nb2i04Cd",
				"nodeType": "success",
				"parameters": []
			}, {
				"children": [ {
					"children": [],
					"id": "LhlIaKKgzwn4w2QQPXQ9hG2T0KwZ7Wgj",
					"nodeType": "success",
					"parameters": []
				}, {
					"children": [ {
						"children": [],
						"id": "DisF9hcVyLKX2oZk2X1WF0PdUASCqTEW",
						"nodeType": "luaCommand",
						"parameters": [ {
							"name": "var",
							"value": "z"
						}, {
							"name": "value",
							"value": "GetClosestInRangePosition(31983,8820)"
						}, {
							"name": "scriptName",
							"value": "store"
						} ],
						"scriptName": "store"
					}, {
						"children": [],
						"id": "hTs2uMX6P8mE5Wdl9F7F2neM1jYj1Zv9",
						"nodeType": "luaCommand",
						"parameters": [ {
							"name": "pos",
							"value": "{x = z.x, z = z.z}"
						}, {
							"name": "fight",
							"value": "false"
						}, {
							"name": "scriptName",
							"value": "Common.move"
						} ],
						"scriptName": "Common.move"
					} ],
					"id": "T9Vkpks8saWhSflOqWyY2ckLC0R1y9M0",
					"nodeType": "sequence",
					"parameters": []
				} ],
				"id": "iN46gTiNdRCqJrqlMbsV1r4VddPM18M5",
				"nodeType": "luaCondition",
				"parameters": [ {
					"name": "expression",
					"value": "Spring.GetUnitWeaponTestRange(31983,1,8820)"
				}, {
					"name": "repeat",
					"value": "false"
				} ]
			} ],
			"id": "TvH5bYp7bXzYjpcNdqlwYHFK0Xx3Dnx0",
			"nodeType": "sequence",
			"parameters": []
		} ],
		"id": "YSsEww5PyeYdeLoDzbrC25RR73ccKx4w",
		"nodeType": "luaCondition",
		"parameters": [ {
			"name": "expression",
			"value": "GetCount(enemies) == 0"
		}, {
			"name": "repeat",
			"value": "false"
		} ]
	} ],
	"additionalParameters": {
		"root": {
			"height": 150,
			"width": 216
		}
	},
	"inputs": [ {
		"command": "BETS_UNIT",
		"name": "Unit"
	}, {
		"command": "BETS_POSITION",
		"name": "Pos"
	} ],
	"outputs": [ {
		"name": "scouted"
	} ],
	"properties": {
		"1vhQumzdkp0bEXyJ6kKhVaqxG0Aa57zc": {
			"height": 94,
			"title": "store",
			"width": 463,
			"x": 2489,
			"y": 304
		},
		"2ysgk6nvwdyRATDNE1V4Lt5lJouEhmMr": {
			"height": 94,
			"title": "store",
			"width": 597,
			"x": 586,
			"y": 167
		},
		"6v02Uh5UhjrVqQc34rS4aVMJ4MT2gvG3": {
			"height": 94,
			"title": "store",
			"width": 463,
			"x": 1137,
			"y": -112
		},
		"DisF9hcVyLKX2oZk2X1WF0PdUASCqTEW": {
			"height": 94,
			"title": "store",
			"width": 344,
			"x": 2489,
			"y": 47
		},
		"E6z63g1lWMMA1HKNedYpNsT0Nb2i04Cd": {
			"height": 54,
			"title": "vybereme cil pro zniceni",
			"width": 234,
			"x": 1876,
			"y": -41
		},
		"HyH46fu35iSvbX3uvvMDba7OOFAPi724": {
			"height": 54,
			"title": "move units into range",
			"width": 218,
			"x": 2508,
			"y": 403
		},
		"J2CJulpAE69na8DcIX9nhgpH7TrYHgPo": {
			"height": 94,
			"title": "store",
			"width": 355,
			"x": 634,
			"y": -13
		},
		"L7CsqW1NnAuhFbvBrVNTORPBvMCXpUgC": {
			"height": 90,
			"title": "Common.move",
			"width": 292,
			"x": 684,
			"y": 291
		},
		"LhlIaKKgzwn4w2QQPXQ9hG2T0KwZ7Wgj": {
			"height": 54,
			"title": "attack target",
			"width": 160,
			"x": 2277,
			"y": 28
		},
		"M1DqW0AmiJZbsf01Fft3OAYvNWEbTcjv": {
			"height": 94,
			"title": "store",
			"width": 421,
			"x": 2479,
			"y": 119
		},
		"SjIksr7vDmfrPXPosEBIrynEe2kQ6fwF": {
			"height": 92,
			"title": "store",
			"width": 131,
			"x": 1652,
			"y": -110
		},
		"T9Vkpks8saWhSflOqWyY2ckLC0R1y9M0": {
			"height": 60,
			"title": "sequence",
			"width": 143,
			"x": 2284,
			"y": 122
		},
		"TvH5bYp7bXzYjpcNdqlwYHFK0Xx3Dnx0": {
			"height": 60,
			"title": "sequence",
			"width": 143,
			"x": 1660,
			"y": 91
		},
		"U53v4fPVa6SJEPHKp0eIk70Jy1dbitZf": {
			"height": 54,
			"title": "jednotky co nejsou bussy/atacking dostanou order na utok",
			"width": 449,
			"x": 2476,
			"y": 532
		},
		"YSsEww5PyeYdeLoDzbrC25RR73ccKx4w": {
			"height": 90,
			"title": "luaCondition",
			"width": 405,
			"x": 1164,
			"y": 0
		},
		"d5QbEfC5pos0Cjbsb3pIDYaZQeTEaQ1y": {
			"height": 92,
			"title": "store",
			"width": 131,
			"x": 595,
			"y": -206
		},
		"eB4Cz5k3IuziPPwCLq8oOADvf73CcRH8": {
			"height": 92,
			"title": "store",
			"width": 369,
			"x": 633,
			"y": 75
		},
		"ev0I267Ti2YQkPicpOPFbaejvvI4Ggow": {
			"height": 94,
			"title": "store",
			"width": 421,
			"x": 2484,
			"y": 212
		},
		"hTs2uMX6P8mE5Wdl9F7F2neM1jYj1Zv9": {
			"height": 90,
			"title": "Common.move",
			"width": 178,
			"x": 2504,
			"y": 150
		},
		"iN46gTiNdRCqJrqlMbsV1r4VddPM18M5": {
			"height": 90,
			"title": "muzeme utocit",
			"width": 358,
			"x": 1868,
			"y": 79
		},
		"j3wisMSxPkpW1gQtef77EOxwZ9hIeLLV": {
			"height": 94,
			"title": "store",
			"width": 287,
			"x": 611,
			"y": -100
		},
		"kZysD2VwHvQShYBOoSI6txcb7BY92EEr": {
			"height": 60,
			"title": "sequence",
			"width": 143,
			"x": 382,
			"y": 24
		},
		"kr2JD5zfrY5WjpcWJEh06fbPfpBQKkHB": {
			"height": 54,
			"title": "Vyber cil na zniceni",
			"width": 204,
			"x": 2472,
			"y": -421
		},
		"ksvfdFQiXwBeEkAfJbKX1Riz1g2Tifjw": {
			"height": 94,
			"title": "store",
			"width": 421,
			"x": 2481,
			"y": -61
		},
		"q2InX0nnReogc8zUtU18JUOmMduGiygU": {
			"height": 60,
			"title": "sequence",
			"width": 143,
			"x": 2286,
			"y": 467
		},
		"yqpNCBJzuwgDPA0Mg9Pox77m4n9lX1gj": {
			"height": 94,
			"title": "store",
			"width": 421,
			"x": 2480,
			"y": 29
		}
	},
	"roles": [ {
		"categories": [],
		"name": "Role 0"
	} ],
	"root": {
		"children": [ {
			"children": [],
			"id": "d5QbEfC5pos0Cjbsb3pIDYaZQeTEaQ1y",
			"nodeType": "luaCommand",
			"parameters": [ {
				"name": "var",
				"value": "scouted"
			}, {
				"name": "value",
				"value": "false"
			}, {
				"name": "scriptName",
				"value": "store"
			} ],
			"scriptName": "store"
		}, {
			"children": [],
			"id": "j3wisMSxPkpW1gQtef77EOxwZ9hIeLLV",
			"nodeType": "luaCommand",
			"parameters": [ {
				"name": "var",
				"value": "curPos"
			}, {
				"name": "value",
				"value": "{Spring.GetUnitPosition(31983)}"
			}, {
				"name": "scriptName",
				"value": "store"
			} ],
			"scriptName": "store"
		}, {
			"children": [],
			"id": "eB4Cz5k3IuziPPwCLq8oOADvf73CcRH8",
			"nodeType": "luaCommand",
			"parameters": [ {
				"name": "var",
				"value": "pos"
			}, {
				"name": "value",
				"value": "global.info.corridors.Top.points[16].position"
			}, {
				"name": "scriptName",
				"value": "store"
			} ],
			"scriptName": "store"
		}, {
			"children": [],
			"id": "2ysgk6nvwdyRATDNE1V4Lt5lJouEhmMr",
			"nodeType": "luaCommand",
			"parameters": [ {
				"name": "var",
				"value": "scoutPos2"
			}, {
				"name": "value",
				"value": "GetClosestScoutPosition(31983,pos,true)"
			}, {
				"name": "scriptName",
				"value": "store"
			} ],
			"scriptName": "store"
		}, {
			"children": [],
			"id": "L7CsqW1NnAuhFbvBrVNTORPBvMCXpUgC",
			"nodeType": "luaCommand",
			"parameters": [ {
				"name": "pos",
				"value": "{x = scoutPos2.x, z = scoutPos2.z}"
			}, {
				"name": "fight",
				"value": "false"
			}, {
				"name": "scriptName",
				"value": "Common.move"
			} ],
			"scriptName": "Common.move"
		} ],
		"id": "kZysD2VwHvQShYBOoSI6txcb7BY92EEr",
		"nodeType": "sequence",
		"parameters": []
	}
}