{
	"additionalNodes": [],
	"additionalParameters": {
		"root": {
			"height": 108,
			"width": 216
		}
	},
	"inputs": [],
	"outputs": [],
	"properties": {
		"0DhxctO18BfA2F0j3wkNWFSWStlIihhn": {
			"height": 92,
			"title": "store",
			"width": 131,
			"x": 1321,
			"y": -150
		},
		"5sU8jbZES1j5ThjhRfvhn0tn8DU59HNN": {
			"height": 54,
			"title": "postav zakladnu",
			"width": 185,
			"x": 1052,
			"y": 126
		},
		"AUQn4PLCwnvz0djliY2UphUtt35tVcsM": {
			"height": 92,
			"title": "store",
			"width": 136,
			"x": 1321,
			"y": -253
		},
		"IlAaGa06NN7P3YaX6IycyBMLg0u8MXeh": {
			"height": 90,
			"title": "luaCondition",
			"width": 194,
			"x": 779,
			"y": 6
		},
		"MUBfQVayT3eKzTeDJtRoAsxO1TsS0Egc": {
			"height": 94,
			"title": "store",
			"width": 483,
			"x": 774,
			"y": -230
		},
		"Zkdh0kGGIlqo7S7hgQ1XCUzhKpofmd24": {
			"height": 60,
			"title": "sequence",
			"width": 143,
			"x": 1126,
			"y": -67
		},
		"cV6yNixE2L9RNh0NA2HqyMgBLOw4MAZ0": {
			"height": 54,
			"title": "neco se stavi",
			"width": 164,
			"x": 576,
			"y": 150
		},
		"lPI0GhlTzwj0a3orkezR5DmodLkuy3Ts": {
			"height": 60,
			"title": "sequence",
			"width": 143,
			"x": 574,
			"y": 17
		},
		"zFdceaMoEIgpYoSpI9ckEqV845FcTTgP": {
			"height": 90,
			"title": "luaCondition",
			"width": 194,
			"x": 322,
			"y": 6
		}
	},
	"roles": [ {
		"categories": [],
		"name": "Role 0"
	} ],
	"root": {
		"children": [ {
			"children": [ {
				"children": [],
				"id": "MUBfQVayT3eKzTeDJtRoAsxO1TsS0Egc",
				"nodeType": "luaCommand",
				"parameters": [ {
					"name": "var",
					"value": "builders"
				}, {
					"name": "value",
					"value": "GetMatchingUnits({ designation = \"builder\"}) "
				}, {
					"name": "scriptName",
					"value": "store"
				} ],
				"scriptName": "store"
			}, {
				"children": [ {
					"children": [ {
						"children": [],
						"id": "AUQn4PLCwnvz0djliY2UphUtt35tVcsM",
						"nodeType": "luaCommand",
						"parameters": [ {
							"name": "var",
							"value": "zasobarny"
						}, {
							"name": "value",
							"value": "nil"
						}, {
							"name": "scriptName",
							"value": "store"
						} ],
						"scriptName": "store"
					}, {
						"children": [],
						"id": "0DhxctO18BfA2F0j3wkNWFSWStlIihhn",
						"nodeType": "luaCommand",
						"parameters": [ {
							"name": "var",
							"value": "menice"
						}, {
							"name": "value",
							"value": "nil"
						}, {
							"name": "scriptName",
							"value": "store"
						} ],
						"scriptName": "store"
					} ],
					"id": "Zkdh0kGGIlqo7S7hgQ1XCUzhKpofmd24",
					"nodeType": "sequence",
					"parameters": []
				}, {
					"children": [],
					"id": "5sU8jbZES1j5ThjhRfvhn0tn8DU59HNN",
					"nodeType": "success",
					"parameters": []
				} ],
				"id": "IlAaGa06NN7P3YaX6IycyBMLg0u8MXeh",
				"nodeType": "luaCondition",
				"parameters": [ {
					"name": "expression",
					"value": "global.build.base"
				}, {
					"name": "repeat",
					"value": "false"
				} ]
			} ],
			"id": "lPI0GhlTzwj0a3orkezR5DmodLkuy3Ts",
			"nodeType": "sequence",
			"parameters": []
		}, {
			"children": [],
			"id": "cV6yNixE2L9RNh0NA2HqyMgBLOw4MAZ0",
			"nodeType": "success",
			"parameters": []
		} ],
		"id": "zFdceaMoEIgpYoSpI9ckEqV845FcTTgP",
		"nodeType": "luaCondition",
		"parameters": [ {
			"name": "expression",
			"value": "not global.build.busy"
		}, {
			"name": "repeat",
			"value": "false"
		} ]
	}
}